<?xml version="1.0" encoding="UTF-8" standalone="no"?>
<svg
   xmlns:dc="http://purl.org/dc/elements/1.1/"
   xmlns:cc="http://creativecommons.org/ns#"
   xmlns:rdf="http://www.w3.org/1999/02/22-rdf-syntax-ns#"
   xmlns:svg="http://www.w3.org/2000/svg"
   xmlns="http://www.w3.org/2000/svg"
   xmlns:xlink="http://www.w3.org/1999/xlink"
   xmlns:sodipodi="http://sodipodi.sourceforge.net/DTD/sodipodi-0.dtd"
   xmlns:inkscape="http://www.inkscape.org/namespaces/inkscape"
   width="122.27186mm"
   height="59.89518mm"
   version="1.1"
   viewBox="0 0 1222.7186 598.9518"
   id="svg79"
   sodipodi:docname="logo.svg"
   inkscape:version="1.0.2 (e86c870879, 2021-01-15)">
  <sodipodi:namedview
     pagecolor="#ffffff"
     bordercolor="#666666"
     borderopacity="1"
     objecttolerance="10"
     gridtolerance="10"
     guidetolerance="10"
     inkscape:pageopacity="0"
     inkscape:pageshadow="2"
     inkscape:window-width="1366"
     inkscape:window-height="704"
     id="namedview81"
     showgrid="false"
     inkscape:zoom="1.2559133"
     inkscape:cx="230.72767"
     inkscape:cy="166.41148"
     inkscape:window-x="0"
     inkscape:window-y="27"
     inkscape:window-maximized="1"
     inkscape:current-layer="svg79"
     fit-margin-top="0"
     fit-margin-left="0"
     fit-margin-right="0"
     fit-margin-bottom="0" />
  <defs
     id="defs7">
    <linearGradient
       id="c"
       x1="552.97998"
       x2="596.04999"
       y1="436.60999"
       y2="434.67001"
       gradientUnits="userSpaceOnUse">
      <stop
         stop-color="#327bb8"
         offset="0"
         id="stop2" />
      <stop
         stop-color="#fff"
         offset="1"
         id="stop4" />
    </linearGradient>
  </defs>
  <metadata
     id="metadata9">
    <rdf:RDF>
      <cc:Work
         rdf:about="">
        <dc:format>image/svg+xml</dc:format>
        <dc:type
           rdf:resource="http://purl.org/dc/dcmitype/StillImage" />
        <dc:title></dc:title>
      </cc:Work>
    </rdf:RDF>
  </metadata>
  <rect
     width="1116.8853"
     height="493.11847"
     id="rect11"
     x="52.916668"
     y="52.916668"
     style="stroke:#000000;stroke-width:105.83333361;stroke-linejoin:round;stroke-miterlimit:4;stroke-dasharray:none;stroke-opacity:1" />
  <g
     transform="translate(116.46143,117.29736)"
     id="g45">
    <g
       id="b">
      <rect
         id="a"
         width="49"
         height="49"
         rx="6"
         ry="6"
         fill="#4d4d4d"
         x="0"
         y="0" />
      <use
         transform="translate(53)"
         width="100%"
         height="100%"
         xlink:href="#a"
         id="use14"
         x="0"
         y="0" />
      <use
         transform="translate(53,53)"
         width="100%"
         height="100%"
         xlink:href="#a"
         id="use16"
         x="0"
         y="0" />
      <use
         transform="translate(106,53)"
         width="100%"
         height="100%"
         xlink:href="#a"
         id="use18"
         x="0"
         y="0" />
      <use
         transform="translate(106,106)"
         width="100%"
         height="100%"
         xlink:href="#a"
         id="use20"
         x="0"
         y="0" />
      <use
         transform="translate(159,106)"
         width="100%"
         height="100%"
         xlink:href="#a"
         id="use22"
         x="0"
         y="0" />
      <use
         transform="translate(159,159)"
         width="100%"
         height="100%"
         xlink:href="#a"
         id="use24"
         x="0"
         y="0" />
      <use
         transform="translate(212,159)"
         width="100%"
         height="100%"
         xlink:href="#a"
         id="use26"
         x="0"
         y="0" />
      <use
         transform="translate(159,212)"
         width="100%"
         height="100%"
         xlink:href="#a"
         id="use28"
         x="0"
         y="0" />
      <use
         transform="translate(106,212)"
         width="100%"
         height="100%"
         xlink:href="#a"
         id="use30"
         x="0"
         y="0" />
      <use
         transform="translate(106,265)"
         width="100%"
         height="100%"
         xlink:href="#a"
         id="use32"
         x="0"
         y="0" />
      <use
         transform="translate(53,265)"
         width="100%"
         height="100%"
         xlink:href="#a"
         id="use34"
         x="0"
         y="0" />
      <use
         transform="translate(53,318)"
         width="100%"
         height="100%"
         xlink:href="#a"
         id="use36"
         x="0"
         y="0" />
      <use
         transform="translate(0,318)"
         width="100%"
         height="100%"
         xlink:href="#a"
         id="use38"
         x="0"
         y="0" />
    </g>
    <use
       transform="translate(368)"
       width="100%"
       height="100%"
       xlink:href="#b"
       id="use41"
       x="0"
       y="0" />
    <use
       transform="translate(736)"
       width="100%"
       height="100%"
       xlink:href="#b"
       id="use43"
       x="0"
       y="0" />
  </g>
  <g
     transform="translate(84.46143,-104.70264)"
     id="g77">
    <g
       transform="translate(0,-160)"
       fill="#fefefe"
       id="g51">
      <path
         d="m 156.33,556.69 q -2.7093,1.8627 -8.128,4.572 -5.2493,2.7093 -12.7,4.7413 -7.2813,1.8627 -16.256,1.6933 -14.393,-0.16934 -25.908,-5.08 -11.515,-5.08 -19.473,-13.547 -7.9586,-8.636 -12.361,-19.643 -4.2333,-11.176 -4.2333,-23.707 0,-14.055 4.4027,-25.739 4.4027,-11.684 12.531,-20.151 8.128,-8.636 19.304,-13.377 11.176,-4.7413 24.384,-4.7413 11.684,0 20.828,3.2173 9.3133,3.048 15.579,6.9426 l -7.7893,18.457 q -4.7413,-3.2173 -11.853,-6.4346 -7.112,-3.2173 -16.087,-3.2173 -8.128,0 -15.579,3.3867 -7.4507,3.2173 -13.039,9.3133 -5.588,5.9266 -8.9746,13.885 -3.2173,7.9586 -3.2173,17.272 0,9.652 2.8787,17.78 3.048,8.128 8.4666,14.055 5.588,5.7573 13.208,9.144 7.7893,3.2173 17.441,3.2173 9.4826,0 16.595,-2.8787 7.2813,-3.048 11.684,-6.7733 z"
         id="path47" />
      <path
         d="m 169.71,566.34 54.525,-128.35 h 1.1853 l 54.525,128.35 h -22.691 l -38.269,-97.536 14.055,-9.4826 -44.027,107.02 z m 34.205,-45.889 h 42.164 l 6.7733,16.933 h -54.864 z"
         id="path49" />
    </g>
    <g
       transform="translate(0,-160)"
       fill="#fcfcfc"
       id="g59">
      <path
         d="m 684.07,567.18 54.525,-128.35 h 1.1853 l 54.525,128.35 h -22.691 l -38.269,-97.536 14.055,-9.4826 -44.027,107.02 z m 34.205,-45.889 h 42.164 l 6.7733,16.933 h -54.864 z"
         id="path53" />
      <path
         d="m 815.3,443.9 h 19.812 v 104.31 h 60.621 v 18.965 H 815.3 Z"
         id="path55" />
      <path
         d="m 921.98,443.9 h 81.788 v 18.965 h -61.976 v 32.851 h 55.203 v 18.965 h -55.203 v 33.528 h 64.347 v 18.965 H 921.98 Z"
         id="path57" />
    </g>
    <g
       transform="translate(0,-160)"
       fill="#327bb8"
       id="g63">
      <path
         d="m 356.56,418.32 q 18.74,0 32.06,6.3218 13.32,6.3218 20.32,18.062 7.2249,11.74 7.2249,28.448 0,9.7084 -3.1609,19.417 -2.9351,9.7084 -9.4827,17.611 -6.3218,7.9022 -17.159,12.644 -10.612,4.7413 -26.19,4.7413 h -23.707 v 57.122 h -26.416 v -164.37 z m 3.6124,81.957 q 8.5796,0 14.45,-2.9351 5.8702,-2.9351 9.0311,-7.4507 3.3867,-4.5156 4.7413,-9.4827 1.5804,-4.9671 1.5804,-8.8054 0,-3.8382 -1.3547,-8.5796 -1.3547,-4.9671 -4.5156,-9.2569 -3.1609,-4.5156 -8.8053,-7.2249 -5.6444,-2.9351 -14.45,-2.9351 h -24.384 v 56.67 z"
         id="path61" />
    </g>
    <g
       transform="translate(0,-160)"
       fill="#327bb8"
       stroke-width="2.6458"
       id="g67">
      <path
         d="M 657,447.51 V 582.69 H 630.81 V 447.43 Z"
         id="path65" />
    </g>
    <g
       transform="translate(0,-160)"
       fill="#327bb8"
       id="g71">
      <path
         d="m 644.45,454.76 c 12.801,-1.8736 16.661,-0.6863 35.45,-15.801 0,0 11.788,4.8119 18.032,5.193 8.8173,0.53827 18.404,0.03 26.169,-4.182 4.4701,-2.4248 9.6302,-6.2658 10.233,-11.315 0.41747,-3.4974 -2.2374,-7.1566 -5.0437,-9.2853 -2.544,-1.9298 -9.3385,-2.1345 -9.3385,-2.1345 0,0 -1.9776,-2.3869 -3.321,-3.0718 -4.1863,-2.1344 -9.1275,-2.8474 -13.826,-2.7528 -7.2316,0.14566 -14.399,2.3528 -21.093,5.0908 -13.87,5.6724 -24.253,17.815 -38.567,19.792 -26.966,1.3568 -49.407,-22.339 -73.867,-16.236 -21.32,5.3191 -40.208,25.267 -50.191,42.737 l -22.804,44.478 7.9022,-0.45156 -46.284,-88.505 h -32.286 l 60.734,111.08 v 53.284 h 26.19 v -53.284 l 30.819,-55.541 c 0,0 17.038,-24.04 30.148,-28.273 22.691,-7.3273 47.35,12.629 70.944,9.176 z"
         fill="url(#c)"
         id="path69"
         style="fill:url(#c)" />
    </g>
    <ellipse
       cx="704"
       cy="262"
       rx="5"
       ry="2.5"
       id="ellipse73" />
    <path
       d="m 706.31,273.95 c 3.3854,4.6171 9.4723,8.1863 18.332,7.8905"
       fill="none"
       stroke="#000000"
       stroke-linecap="round"
       stroke-width="3.5"
       id="path75" />
  </g>
</svg>
